@relation birb

@attribute huml numeric
@attribute humw numeric
@attribute ulnal numeric
@attribute ulnaw numeric
@attribute feml numeric
@attribute femw numeric
@attribute tibl numeric
@attribute tibw numeric
@attribute tarl numeric
@attribute tarw numeric
@attribute type {SW,W,T,R,P,SO}

@data
0.674404,1.009304,0.442434,0.816252,0.509184,0.537633,-4.290132,0.696754,0.242592,0.752536,SW
0.800699,0.996815,0.595745,1.052134,0.741637,0.797261,0.676702,0.879429,0.377677,0.819479,SW
0.661131,0.930316,0.389051,0.953059,0.567742,0.62858,0.560633,0.700777,0.223005,0.536959,SW
0.622358,0.745582,0.317957,0.77666,0.423872,0.451474,0.402036,0.420803,0.090883,0.569012,SW
0.342814,0.473715,-0.001538,0.349577,0.098472,0.006048,0.019508,0.195832,-0.1323,0.436608,SW
0.324229,0.452979,-0.045125,0.224105,0.842967,0.8409,0.04177,0.064525,-0.310738,0.280906,SW
0.657173,0.814139,0.351526,0.675474,0.52141,0.396625,0.457204,0.495452,0.167186,0.669878,SW
0.771795,0.739739,0.489408,0.694662,0.630386,0.574589,0.57704,0.605625,0.204237,0.740416,SW
1.175722,1.271223,1.103647,1.212271,1.199425,1.206704,1.261796,1.225022,1.142102,0.952334,SW
1.444861,1.748365,1.392545,1.455097,1.552458,1.744429,1.423053,1.663409,1.614487,1.527379,SW
1.615034,1.905056,1.502283,1.816289,1.795103,1.837103,1.748031,1.859783,1.80043,1.596496,SW
1.772814,1.651475,1.466671,1.832221,1.086207,1.644042,2.225271,1.823973,1.891791,1.028236,SW
1.669755,1.39805,1.37337,1.765539,0.946159,1.558275,2.174493,2.109177,1.708288,1.307739,SW
1.479904,1.034004,1.157921,1.314046,0.62283,1.4653,1.897369,1.517106,1.48855,0.905665,SW
1.482379,1.082329,1.159388,1.234787,0.579612,1.187579,1.897369,1.500006,1.538788,0.546185,SW
1.404184,0.986756,1.095749,1.119167,0.409535,1.256692,2.024434,1.774963,1.518488,0.618074,SW
1.352991,0.890704,1.008,1.125135,0.320219,1.102167,1.921129,1.634281,1.45494,0.622458,SW
1.244429,0.833613,0.897684,1.122154,0.132452,1.200352,1.773771,1.620658,1.272549,0.508946,SW
1.270607,0.87998,0.926876,1.067598,0.242389,1.019391,1.8366,1.541228,1.311752,0.401656,SW
1.032497,0.341521,0.833652,0.608599,0.516247,0.987299,1.56554,1.579091,1.396676,0.541579,SW
1.126224,0.45992,0.902321,0.632497,0.607632,1.085246,1.617435,1.685466,1.413659,0.202502,SW
1.064405,0.541023,0.86072,0.736145,0.657699,1.308266,1.542661,1.625212,1.259598,0.909306,SW
1.084977,0.791599,0.852274,0.713641,0.60179,1.293257,1.513474,1.781171,1.220517,0.752536,SW
0.359899,-0.103549,0.169239,-0.179736,-0.134986,0.128624,0.543584,0.831949,0.270374,-0.278882,SW
0.499426,0.02276,0.306022,-0.069636,0.0136,0.461262,0.681317,0.82452,0.477567,-0.053043,SW
0.516446,-0.128031,0.325235,-0.167152,0.267075,0.20953,0.603424,0.66009,0.209328,0.280906,SW
-0.024652,1.140825,-0.648703,1.730162,0.873398,1.057823,0.55694,1.030545,-0.805306,2.340481,SW
-0.061476,1.101273,-0.638613,1.796167,0.945025,1.095418,0.576308,0.970415,-0.743588,2.268249,SW
-0.214568,1.016753,-0.713065,1.615001,0.842568,0.947247,0.474805,0.890191,-0.809607,2.144179,SW
0.531978,2.329409,-0.177072,2.118502,1.71408,1.817181,1.553488,1.470265,-0.096243,2.731565,SW
0.577505,2.057537,-0.231382,1.804244,1.669799,1.578842,1.305091,1.643299,0.009755,2.761465,SW
1.692528,1.790889,2.022561,1.810277,0.745406,1.418268,0.27335,0.84303,-1.193081,0.674118,SW
1.7869,1.890474,2.148851,1.998452,0.957842,1.781188,0.399086,1.088527,-1.080914,1.568269,SW
1.932647,2.119929,2.294396,2.186093,1.115907,1.876269,0.592577,1.110528,-0.802731,1.71534,SW
1.765714,1.824751,2.06402,1.678957,0.901047,1.566017,0.388591,0.779214,-1.020447,1.517598,SW
1.722292,1.862412,1.985999,1.794141,0.761244,1.481598,0.291924,0.879429,-1.066111,1.598825,SW
1.751399,1.893401,2.304224,1.921096,0.952198,1.697353,0.372871,0.91503,-1.026217,1.544347,SW
1.765714,2.046907,2.104262,2.027038,0.954081,1.758306,0.370692,0.932541,-1.088856,1.726094,SW
2.273351,2.338382,2.487295,2.133566,2.055999,2.204465,1.599689,2.20898,1.689226,2.05325,SW
2.263631,2.268706,2.443767,2.211773,1.936164,2.248382,1.509941,2.110864,1.626983,2.239306,SW
0.963648,0.989277,1.023291,1.116176,0.220122,0.134531,-0.019432,0.317308,-0.328111,1.103794,SW
0.956166,0.927704,0.995593,1.125135,0.256916,0.281409,-0.02381,0.411226,-0.398514,1.181937,SW
1.462903,1.39805,1.493466,1.145861,1.168603,1.606728,1.244361,1.73296,1.197172,1.612726,SW
1.541164,1.386191,1.5957,1.180826,1.198428,1.61175,1.29519,1.754098,1.284248,1.660418,SW
1.274334,1.041343,1.262827,0.798368,0.849726,1.071589,0.846774,1.369661,0.846303,1.191054,SW
1.06707,1.082329,1.096104,0.679328,0.814485,1.161745,0.842343,1.618377,0.637183,1.138665,SW
1.321152,1.364227,1.37337,1.07987,1.083741,1.497744,1.378348,1.789411,1.144925,1.447343,SW
1.707494,1.543179,1.794078,1.55791,1.17164,1.644042,0.90446,1.519535,0.949203,2.032296,SW
1.744182,1.530497,1.815224,1.541583,1.237288,1.578842,0.910376,1.485203,0.999515,1.930569,SW
1.48951,1.319408,1.5957,1.356274,0.976167,1.343766,0.629912,1.236617,0.57886,1.880961,SW
1.662075,1.388174,1.750779,1.361481,1.177363,1.56344,0.839171,1.432305,0.754948,1.964003,SW
1.582713,1.354146,1.706069,1.371848,0.855275,1.177936,0.398549,1.104273,0.171856,1.774621,SW
1.692528,1.526856,1.84976,1.501279,1.057482,1.395685,0.536621,1.180787,0.288026,1.861449,SW
-1.001431,-0.637774,-0.890335,-0.706891,-0.84517,-0.507973,-0.723224,-0.593679,-0.857551,-0.488599,SW
-0.917998,-0.741483,-0.850162,-0.830983,-0.750016,-0.482504,-0.606969,-0.723614,-0.703239,-0.444317,SW
-0.675695,-0.472046,-0.494039,-0.497609,-0.252877,-0.146584,-0.166737,-0.293257,-0.120809,-0.232518,SW
2.445577,2.286112,2.465704,1.974875,1.994105,1.891264,2.174493,2.080234,2.002101,1.825694,SW
2.162273,1.97053,2.159775,1.740642,1.609437,1.728098,1.956208,1.902505,1.705476,1.689221,SW
2.84553,2.642196,2.866627,2.337732,2.426673,2.253578,2.684336,2.331207,2.56109,2.056715,SW
2.162273,1.880191,2.135072,1.562547,1.498359,1.42945,1.909287,1.63654,1.726468,1.475325,SW
2.402392,2.04824,2.398813,1.810277,1.886348,1.980625,2.153785,2.107489,2.059186,1.797301,SW
-0.942255,-1.063204,-1.263438,-0.896521,-1.365616,-0.826377,-0.37993,-0.823236,-0.147525,-0.392801,SW
-0.625318,-0.598036,-0.8178,-0.460102,-0.881116,-0.384226,0.07211,-0.158198,0.034397,0.101619,SW
-0.371853,-0.651233,-0.569589,-0.52821,-1.174981,-0.921498,-0.500628,-0.929374,-0.561849,-0.90939,SW
0.717231,0.326579,0.613674,0.470938,0.329025,0.308277,0.650645,0.270851,0.504375,0.275436,SW
0.76039,0.363684,0.642275,0.335554,0.366904,0.265085,0.745636,0.531528,0.57844,0.242201,SW
-0.450659,-1.098201,-0.542378,-1.004783,-1.599896,-1.451406,-0.734074,-1.152419,-0.567918,-1.137805,SW
-0.525937,-1.045979,-0.680722,-0.935113,-1.597149,-1.365008,-0.953286,-1.310919,-0.959021,-1.193499,SW
-0.30708,-0.713188,-0.471977,-0.724085,-1.49681,-1.269385,-0.836255,-1.177784,-0.767028,-1.044925,SW
-0.212009,-0.624422,-0.261273,-0.394564,-1.131151,-1.092688,-0.407509,-0.823236,-0.197692,-0.851505,SW
-0.787072,-1.335393,-0.892854,-0.994657,-1.918401,-1.688436,-1.052189,-1.455955,-0.883318,-1.614615,SW
-0.7782,-1.305078,-0.92913,-1.220782,-1.865805,-1.775268,-1.052776,-1.549635,-0.923994,-1.524219,SW
-0.088548,-0.167967,-0.480535,0.028305,-0.48856,-0.440873,-0.233476,-0.158198,-0.415996,-0.232518,SW
-0.142299,-0.214073,-0.578781,0.094258,-0.599587,-0.376283,-0.271233,-0.369127,-0.508803,-0.31861,SW
0.948244,0.500966,0.801211,0.501064,0.473004,0.401684,0.818956,0.518093,0.595169,0.365894,SW
1.043876,0.751404,0.953886,0.624568,0.653758,0.49987,0.96733,0.736544,0.782734,0.532326,SW
1.072022,0.822513,0.956637,0.787548,0.798663,0.693781,0.975017,0.82452,0.814222,0.600413,SW
1.047688,0.866477,0.96173,0.791162,0.67382,0.813257,0.936865,0.886612,0.669509,0.480416,SW
0.122344,-0.321354,0.015464,-0.148446,-0.687595,-0.568903,-0.118214,-0.330749,-0.192053,-0.47964,SW
0.148609,-0.234983,0.054924,0.088856,-0.662657,-0.542526,-0.06713,-0.408435,-0.168424,-0.639483,SW
0.382476,0.173392,0.223904,0.045029,0.032312,-0.153536,0.274785,0.016244,-0.178959,-0.150971,SW
0.469101,0.296286,0.311898,0.311927,0.235897,0.062286,0.356742,0.003946,-0.056174,-0.08731,SW
1.426569,1.072776,1.391211,1.01445,0.768289,0.852612,1.229505,1.14451,1.18616,0.744467,SW
1.526733,1.192881,1.490456,1.200902,0.904138,1.148682,1.307559,1.159724,1.250124,0.84243,SW
0.823898,0.424924,0.851144,0.518048,-0.147449,-0.119052,0.101962,0.028449,0.010318,0.236592,SW
0.810733,0.563951,0.865203,0.659969,-0.148108,-0.105449,0.078502,0.099816,0.014821,0.339834,SW
0.802031,0.45992,0.806331,0.453485,-0.020041,0.037517,0.21885,0.064525,0.128881,0.485208,SW
0.809115,0.44601,0.784253,0.509577,-0.233534,-0.085243,0.069227,0.040564,-0.128664,0.185171,SW
0.673099,0.602535,0.685206,0.576215,0.030508,0.163763,0.439172,0.151355,0.295333,0.01329,SW
0.677498,0.60888,0.696009,0.466591,0.010565,0.031269,0.43154,0.239123,0.261488,0.01329,SW
0.593031,0.60888,0.597957,0.580296,-0.084628,0.086705,0.376678,0.201307,0.175481,0.07065,SW
1.054914,0.165143,0.407728,0.131604,-0.388649,-0.551274,-0.112193,-0.039846,-0.204606,-0.334792,SW
0.473856,0.18569,0.345204,0.292791,-0.246639,-0.31402,-0.076818,-0.416412,-0.181447,-0.263273,SW
0.991877,0.780214,0.982045,0.754678,1.545776,0.203875,0.443631,0.265606,0.319494,0.371054,SW
0.95919,0.71616,1.016293,0.816252,0.317621,0.140417,0.489687,0.416022,0.327163,0.313327,SW
0.52597,0.131729,0.487014,0.268571,-0.561879,-0.678629,-0.175864,-0.199647,-0.35583,-0.10824,SW
0.996226,0.808533,0.941771,0.780297,0.361828,0.396625,0.565301,0.453885,0.441387,0.431663,SW
1.049652,0.742663,1.029508,0.966165,0.452235,0.259609,0.714208,0.562449,0.517857,0.345081,SW
0.448747,0.053998,0.395962,0.083438,-0.504268,-0.482504,-0.159831,-0.027213,-0.440028,-0.255526,SW
0.40247,0.075957,0.376723,0.168164,-0.540881,-0.551274,-0.239147,-0.490027,-0.376366,-0.073512,SW
0.429253,-0.046224,0.363476,0.10501,-0.519309,-0.736221,-0.13103,-0.558387,-0.242763,-0.571652,SW
0.439621,0.040682,0.374924,0.078003,-0.548124,-0.622895,-0.197213,-0.171897,-0.438606,-0.444317,SW
0.959059,0.7601,0.997499,0.80912,0.18652,0.192509,0.411923,0.327454,0.298249,0.508946,SW
0.457234,0.058413,0.425962,0.157797,-0.516133,-0.568903,-0.146815,-0.361379,-0.241479,0.006784,SW
0.450488,0.088995,0.448134,0.198901,-0.566757,-0.613778,-0.189823,-0.338352,-0.30476,-0.217368,SW
1.053936,0.428457,1.025906,0.522268,0.222305,0.237531,0.580936,0.588492,0.722861,0.541579,SW
1.077435,0.407145,1.02167,0.488217,0.16754,0.313601,0.595958,0.495452,0.629426,0.360717,SW
0.964564,0.45992,0.910058,0.526478,0.233729,0.371106,0.797436,0.763827,0.833829,0.386431,SW
0.956561,0.550888,0.903681,0.488217,0.276121,0.570012,0.838748,0.66831,0.847399,0.275436,SW
0.486515,0.439011,0.220775,0.457864,-0.273112,0.163763,0.453299,0.43979,0.317573,-0.32668,SW
0.593204,0.661853,0.326271,0.539046,-0.099344,0.231967,0.646893,0.495452,0.526505,-0.094255,SW
1.035103,1.043782,0.946656,0.88258,0.424856,1.043947,1.181573,1.04361,1.000528,0.470788,SW
1.022146,1.110664,0.84874,1.001705,0.300392,0.848717,1.122586,1.014065,0.914566,0.280906,SW
0.602535,0.643348,0.385086,0.479599,-0.14088,0.192509,0.486874,0.562449,0.451281,-0.194917,SW
0.401467,0.067208,0.216291,0.162988,-0.509006,-0.181628,0.251103,0.058568,0.315649,-0.342947,SW
0.938674,0.958775,0.773678,0.962897,0.177611,0.680936,0.937868,0.861331,0.758395,0.202502,SW
1.549579,1.504839,1.786955,1.447692,1.922388,1.495063,2.604441,1.55553,3.160622,1.628787,W
1.800836,1.971925,2.004402,1.790084,2.263256,1.814954,2.707648,1.749892,3.160622,1.680416,W
0.485951,0.031745,0.53251,-0.099526,0.83898,0.220785,0.661392,0.396753,0.841176,0.381322,W
0.85894,0.618351,1.034957,0.413562,1.053906,0.740077,1.668592,0.798245,2.006923,0.732283,W
1.179283,1.055925,1.303149,0.879152,1.744067,1.138819,1.599689,1.16577,1.770504,1.07793,W
1.198478,1.089459,1.277608,0.992084,1.439205,1.17471,1.572819,1.11676,1.820863,1.197102,W
0.4404,0.303911,0.196161,0.349577,0.978028,0.706531,0.934253,0.805796,0.900394,0.868782,W
0.217038,0.269319,-0.150703,0.302385,1.000585,0.719187,0.888456,0.775381,1.029684,0.934551,W
-0.005935,-0.093857,-0.242005,-0.022857,0.880053,0.490298,0.987366,0.444502,0.922317,1.021488,W
-0.587378,-0.922179,-0.946847,-0.896521,0.032312,-0.44912,-0.174766,-0.456896,-0.198947,-0.294651,W
-0.458728,-0.829377,-0.862436,-0.758992,0.204219,-0.268753,-0.134964,-0.392598,-0.057924,-0.310582,W
-0.331348,-0.836916,-0.687651,-0.849457,0.304583,-0.231915,0.045347,-0.293257,0.165626,-0.10824,W
-0.422987,-0.617786,-0.796015,-0.317682,-0.652429,-0.697613,-0.703659,-0.575937,-1.202553,-0.629609,W
-0.489929,-0.50266,-0.75528,-0.338314,-0.681547,-0.669214,-0.69347,-0.549683,-1.119942,-0.659423,W
-0.434667,-0.664803,-0.798837,-0.430668,-0.655833,-0.910667,-0.834165,-0.896798,-1.126017,-0.731312,W
0.574694,0.725042,0.204566,0.739868,0.670781,0.339977,0.480464,0.481714,-0.128664,0.948794,W
0.606318,0.780214,0.227027,0.926546,0.776132,0.456375,0.557926,0.767688,0.054328,0.987298,W
-0.088839,-0.065113,-0.408198,0.15259,-0.239731,-0.499442,-0.339517,-0.151391,-0.678944,-0.263273,W
-0.055787,-0.118195,-0.412453,0.147367,-0.212338,-0.23922,-0.233853,-0.084852,-0.486091,-0.11528,W
-0.076383,0.135943,-0.399023,0.244008,-0.202163,-0.181628,-0.385249,-0.065411,-0.630467,0.173508,W
-0.090878,-0.093857,-0.414942,0.05609,-0.259831,-0.35267,-0.31687,-0.171897,-0.537013,-0.165481,W
0.048407,0.28093,-0.495547,0.377288,-0.450594,-0.329377,-0.33712,-0.361379,-0.536265,-0.752482,W
-0.104651,0.127505,-0.632761,-0.046089,-0.86117,-0.746009,-0.576737,-0.611616,-0.728668,-0.981841,W
0.740228,1.288142,0.26265,1.110177,0.730284,0.601795,0.736934,0.82452,0.164586,0.485208,W
0.789542,1.33993,0.343364,1.245937,0.720985,0.61077,0.740286,0.680561,0.140505,0.752536,W
0.700395,0.45992,0.785736,0.307163,0.77572,0.693781,1.708737,0.786854,1.987157,0.578049,W
0.717704,0.547606,0.814483,0.273442,0.832584,0.68951,1.261796,0.601359,1.694658,0.587034,W
-0.723828,-1.054569,-0.746642,-1.056317,-0.990031,-0.999281,-0.849367,-1.04294,-0.643855,-1.097314,W
-0.656745,-0.954301,-0.645753,-0.821819,-0.85645,-1.068859,-0.661805,-0.962617,-0.682972,-1.044925,W
0.465285,0.345235,0.50623,0.457864,0.346007,0.186798,0.872519,0.481714,1.325502,0.286357,W
0.435327,0.29246,0.560742,0.49251,-0.314933,-0.119052,-0.364875,-0.058982,-0.558821,-0.073512,W
-0.291712,-0.552845,-0.154229,-0.250625,-1.084038,-0.976698,-1.021325,-1.054746,-1.489781,-0.945191,W
1.159128,0.852862,1.292027,1.265278,0.634374,0.490298,0.625642,0.680561,0.690234,0.219641,W
1.384268,1.210612,1.511043,1.371848,1.292594,1.081842,1.361661,1.29617,1.456275,0.792264,W
1.104645,0.919845,1.208168,0.903011,0.683344,0.55621,0.779601,0.655965,0.841176,0.421726,W
0.698955,0.487396,0.823596,0.612605,0.288821,0.186798,0.560387,0.317308,0.740324,0.01329,W
1.062221,0.974096,1.153847,1.039663,0.776956,0.706531,0.894833,0.720745,1.116513,0.396598,W
1.380554,1.325591,1.497794,1.546263,1.322176,1.206704,1.498707,0.932541,1.526479,0.857543,W
1.295969,1.206197,1.392545,1.287122,1.231736,1.026443,1.318866,1.094844,1.391718,0.639871,W
0.960503,0.692242,1.06309,0.872274,0.641886,0.702291,0.736934,0.553674,0.915272,0.494747,W
1.274437,1.070379,1.37337,1.245937,1.169616,0.94356,1.218846,1.110528,1.265495,0.764562,W
1.48951,1.319408,1.62011,1.529825,1.456788,1.367034,1.497521,1.276561,1.608085,0.938124,W
0.503145,0.265431,0.574298,0.409069,0.261735,0.292206,0.478922,0.122924,0.481988,0.137982,W
1.267597,0.963898,1.353923,1.122154,1.168941,0.936161,1.189824,1.07582,1.238515,0.665627,W
0.543733,0.237955,0.605753,0.344915,0.081553,-0.058664,0.434439,-0.084852,0.462909,0.006784,W
0.736967,0.624636,0.816368,0.620589,0.223396,0.259609,0.423347,0.233775,-0.009504,0.076893,W
0.844117,0.524449,0.883128,0.762037,0.423379,0.134531,0.507743,0.212202,0.09628,0.039046,W
0.741468,0.550888,0.795631,0.559794,0.337791,-0.091952,0.351794,0.064525,0.306485,0.107739,W
0.785802,0.576912,0.860299,0.780297,0.350102,0.128624,0.426787,-0.020933,0.00411,-0.019521,W
0.356998,0.169273,0.540154,0.311927,-0.364994,-0.276215,-0.243697,-0.071865,-0.771244,-0.506673,W
0.661625,0.424924,1.047504,0.81269,0.430264,0.360792,0.394519,0.347558,-0.02551,0.208237,W
0.067672,-0.152878,0.172489,0.072551,-0.697138,-0.765753,-0.733085,-0.392598,-1.476365,-0.49761,W
-0.865,-1.28517,-0.948422,-0.98459,-1.168344,-1.229971,-0.815983,-1.26982,-0.727017,-1.251276,W
-1.015473,-1.440636,-1.054838,-1.494231,-1.407553,-1.481193,-1.127085,-1.582102,-1.226971,-1.311296,W
-0.986386,-1.419047,-1.02898,-1.131133,-1.421315,-1.496282,-0.899516,-1.471198,-0.937745,-1.266064,W
0.383087,0.265431,0.406165,0.431419,0.509655,0.302937,0.816387,0.605625,1.252497,0.569012,W
-0.391116,-0.430113,-0.378773,-0.345247,-0.070021,-0.392205,-0.126748,-0.058982,-0.116592,-0.10824,W
0.51092,0.490799,0.603216,2.378731,0.540538,0.292206,0.818528,0.495452,1.346509,0.386431,W
0.548944,0.580137,0.647695,0.496792,0.652003,0.381359,0.689136,0.584181,1.052499,0.396598,W
-0.496656,-0.906348,-0.573978,-0.52821,-0.909964,-0.943367,-0.710483,-0.996556,-0.708134,-0.969527,W
-0.532443,-0.867417,-0.638194,-0.750199,-1.041128,-1.141356,-0.948838,-1.353085,-0.921255,-1.326673,W
-0.69723,-1.170485,-0.788051,-0.935113,-1.197266,-1.39333,-0.806187,-1.353085,-0.957161,-1.614615,W
-0.460657,-1.080611,-0.524532,-0.794615,-0.828369,-1.15374,-0.34432,-1.177784,-0.162254,-1.251276,W
0.772249,0.586567,0.81274,0.656071,0.199257,0.056127,0.34628,0.179295,0.465582,-0.012903,W
-0.126631,0.403566,-0.02865,0.381864,0.359793,0.275985,-0.000359,0.151355,-0.22359,0.280906,T
-0.108486,0.762988,0.015984,0.801959,0.444939,0.565423,0.024442,0.377254,-0.166571,0.536959,T
-1.147779,-0.727276,-1.000325,-0.954735,-0.928455,-1.178779,-1.295973,-1.008028,-1.504525,-0.649421,T
0.00793,0.674075,0.131307,0.349577,0.544249,0.215167,-0.11184,0.134356,-0.437185,0.386431,T
-0.399565,0.119024,-0.391307,-0.069636,0.043095,-0.038995,-0.487592,-0.300687,-0.614055,-0.012903,T
-0.329599,0.23002,-0.254926,0.17847,0.158545,0.098786,-0.231212,-0.165033,-0.502181,0.095475,T
-0.575954,-0.018286,-0.537311,-0.08153,-0.238352,-0.195847,-0.658004,-0.199647,-0.860201,-0.059836,T
-0.588229,0.004642,-0.490274,-0.051946,-0.279434,-0.35267,-0.737044,-0.448718,-0.929482,-0.073512,T
-0.616599,-0.132971,-0.553355,-0.352207,-0.400584,-0.384226,-0.905475,-0.541025,-1.161839,-0.232518,T
-0.544317,-0.326904,-0.867377,-0.430668,0.334702,-0.045526,-0.079943,0.052588,-0.186431,0.058086,T
-0.531221,-0.229731,-0.802137,-0.445322,0.40407,-0.006702,-0.010708,-0.071865,0.159898,-0.094255,T
-0.592061,-0.152878,-0.906027,-0.408915,0.330574,0.068423,-0.07093,-0.002238,-0.248552,0.01977,T
-0.540621,-0.079423,-0.829305,-0.263831,0.399587,0.345205,0.015882,0.217622,-0.140811,0.083112,T
-0.520271,-0.332473,-0.83461,-0.352207,0.293037,-0.06527,-0.239905,-0.151391,-0.351748,-0.012903,T
-0.441117,-0.266848,-0.909085,-0.452696,0.464337,0.203875,-0.057491,0.099816,-0.149972,0.167644,T
-0.533666,-0.142895,-0.814462,-0.38033,0.344469,0.068423,-0.093896,-0.078346,-0.188303,0.076893,T
0.85738,1.612119,0.90055,1.57868,1.860129,1.751382,1.39567,1.500006,1.365335,1.352053,T
0.182913,0.456453,-0.001538,0.580296,1.373358,1.296269,0.809303,0.967008,0.713483,0.909306,T
-0.517447,-0.183194,-0.803553,-0.445322,0.391091,0.006048,0.025427,-0.078346,-0.091485,0.083112,T
-0.456033,-0.118195,-0.728632,-0.257215,0.442013,0.128624,-0.064715,0.058568,-0.110585,0.19097,T
1.181836,1.969134,0.955327,0.77666,2.396287,2.304694,2.205126,2.120947,2.644396,1.879021,T
1.270296,2.214162,1.179443,1.958362,2.539868,2.517664,2.264914,2.176929,2.563348,1.923039,T
-0.263164,0.18569,-0.458687,-0.040252,0.675989,0.401684,0.271051,0.406416,0.195553,0.297201,T
0.226235,0.439011,0.385086,0.505326,1.139692,0.987299,0.675316,0.783039,1.107908,0.7282,R
0.336297,0.442514,0.396946,0.466591,1.130763,0.913773,0.615163,0.786854,1.100547,0.760564,R
0.155397,0.303911,0.265469,0.147367,0.774484,0.416772,0.265291,0.296825,0.921262,0.297201,R
0.228067,0.288626,0.346634,0.258788,1.056767,0.760718,0.552746,0.562449,1.068866,0.513651,R
0.116381,0.341521,0.237679,0.363488,0.743732,0.509388,0.241194,0.420803,0.906075,0.318665,R
1.091408,1.362216,1.242265,1.387284,1.808573,1.865478,1.301137,1.634281,1.757078,1.704511,R
1.166442,1.550383,1.319413,1.442738,1.96546,2.05786,1.41019,1.787355,1.80043,1.757914,R
0.986099,1.089459,1.127303,1.092057,1.75789,1.61175,1.158025,1.374974,1.649323,1.467744,R
1.06137,1.199553,1.245873,1.175048,1.844611,1.573723,1.318049,1.442515,1.787886,1.480359,R
0.684312,0.765871,0.819843,0.787548,1.40865,1.228752,0.923162,1.16577,1.477499,1.194081,R
0.712171,0.774492,0.828346,0.636448,1.438616,1.105531,0.902212,1.030545,1.538533,1.018103,R
0.811321,0.948483,0.947842,0.946468,1.587717,1.462568,1.043554,1.290591,1.566957,1.247579,R
0.802771,0.906662,0.92098,0.982409,1.534589,1.343766,1.011821,1.259562,1.52339,1.197102,R
0.941473,1.117673,1.13938,1.055238,1.639716,1.457092,1.20187,1.287795,1.721125,1.405716,R
1.212963,1.344004,1.434917,1.297941,2.014,1.787994,1.371532,1.562635,1.724611,1.63562,R
1.301652,1.596462,1.493466,1.486827,2.123514,2.002761,1.506549,1.783235,0.880736,1.865371,R
1.155625,1.051078,1.262827,1.116176,1.671108,1.524323,1.421044,1.369661,2.073004,1.457577,R
1.045353,1.433129,1.242584,1.308694,1.554402,1.606728,1.086272,1.369661,1.35074,1.40835,R
1.195627,1.386191,1.252321,1.289833,2.01971,1.966389,1.362938,1.709387,1.745398,1.673779,R
0.748422,0.874592,0.883266,0.791162,0.977284,0.785166,0.4015,0.767688,0.187343,1.299287,R
0.710427,0.816935,0.850438,0.628537,0.934407,0.760718,0.331866,0.708794,0.134701,1.34384,R
0.522315,0.87998,0.664637,0.906392,1.342376,1.200352,0.738276,0.922057,0.840076,1.071396,R
0.703428,1.161389,0.858192,1.229185,1.56382,1.457092,0.923769,1.24526,0.989013,1.439623,R
-0.085351,0.03622,-0.02062,0.061594,0.372979,0.169551,-0.083421,0.034518,0.210852,-0.046281,R
-0.198021,-0.009077,-0.171698,-0.011357,0.339848,0.086705,-0.270847,-0.0462,0.075145,-0.094255,R
-0.172654,-0.06987,-0.132629,0.121015,0.215747,0.140417,-0.230458,0.034518,0.013696,-0.073512,R
1.444861,1.74037,1.758091,1.657169,1.715872,1.814954,1.50581,1.789411,0.813478,2.174941,R
1.417327,1.612119,0.620546,1.517988,1.738005,1.646502,1.498411,1.60462,0.807145,1.936191,R
1.444861,1.730724,1.758091,1.641752,1.760643,1.808253,1.5214,1.622937,0.873898,2.048038,R
0.22463,0.080314,0.411239,0.017065,0.407053,0.37624,0.331309,0.387033,0.610515,0.253359,R
0.063012,-0.240251,0.256777,-0.218044,0.231558,0.080632,0.215001,0.076374,0.494311,0.155847,R
1.185933,1.217213,1.327923,1.192327,1.675552,1.470749,1.3445,1.401285,1.122229,1.869283,R
1.167115,1.117673,1.316799,1.027103,1.675813,1.329063,1.349006,1.186755,1.072773,1.934319,R
1.160594,1.186183,1.30203,1.229185,1.622088,1.401358,1.306079,1.326513,1.130455,1.65818,R
1.19101,1.317342,1.338065,1.245937,1.697107,1.511084,1.358625,1.361657,1.087356,1.662653,R
1.269051,1.311128,1.434456,1.337925,1.823649,1.566017,1.484569,1.492621,1.232534,1.880961,R
-0.03439,-0.424208,0.083172,-0.43798,0.134735,-0.160517,-0.08377,-0.220775,-0.020924,0.095475,R
-0.098773,-0.598036,-0.100854,-0.615254,0.151206,-0.153536,-0.167465,-0.235015,-0.262776,0.208237,R
0.317405,-0.103549,0.328342,-0.28383,0.270273,0.080632,0.229762,0.145708,0.513084,0.045419,R
0.874437,0.797263,0.947578,0.604584,1.112088,1.050899,1.021052,1.004095,1.351022,0.962907,R
0.818648,0.808533,0.950079,0.636448,1.033763,0.93245,0.989904,0.846707,1.319785,0.868782,R
0.959321,0.919845,1.050318,0.747289,1.212017,1.036966,1.131645,1.150613,1.416929,1.144921,R
0.90804,0.748496,1.046157,0.555664,1.215647,0.93245,1.069527,0.897327,1.494836,0.923782,R
0.865161,0.634019,0.928479,0.426972,1.173325,0.921268,1.107999,0.900883,1.424265,0.955866,R
0.951419,0.855594,1.035698,0.580296,1.248992,0.969209,1.170633,1.020677,1.422366,0.894692,R
-0.433154,-0.664803,-0.340498,-0.698358,0.34293,-0.112237,-0.5015,-0.111141,-1.02718,0.446451,R
-0.499833,-0.692279,-0.36876,-0.91571,-0.319954,-0.368376,-0.660379,-0.323181,-1.122977,0.313327,R
-0.403624,-0.692279,-0.27502,-0.715467,-0.245947,-0.203001,-0.494533,-0.104529,-0.934987,0.431663,R
-0.663032,-0.521302,-0.870846,-0.543715,-0.290724,-0.499442,-0.664662,-0.602623,-0.585474,-0.581162,P
-0.604058,-0.658004,-0.959493,-0.849457,0.003873,-0.440873,-0.190192,-0.541025,-0.031834,-0.351145,P
-0.619208,-0.770268,-1.000325,-0.849457,-0.042375,-0.376283,-0.163462,-0.440581,-0.036447,-0.310582,P
-0.170795,-0.326904,-0.480535,-0.08153,0.948426,0.588246,0.707631,0.562449,1.131087,0.213949,P
-0.078692,-0.137925,-0.407844,0.248949,1.030144,0.714979,0.752967,0.566819,1.212666,0.19097,P
-0.126631,-0.046224,-0.42029,0.050569,0.957842,0.777055,0.743186,0.732608,1.125081,0.391523,P
-0.056355,-0.108417,-0.370481,0.229102,1.038097,0.706531,0.803055,0.700777,1.207819,0.416732,P
-0.079559,0.403566,0.125082,-0.069636,-0.259134,-0.31402,-0.759973,-0.473377,-1.058262,-0.136596,P
-0.472677,-0.436039,-0.270209,-0.55152,-1.058807,-1.080732,-1.391492,-1.127444,-1.662501,-0.933165,P
-0.556715,-0.533848,-0.363609,-0.741451,-0.909964,-0.921498,-1.014407,-0.782651,-1.268003,-0.679624,P
-2.096928,-0.389211,-1.733223,-0.98459,-1.352236,-1.379111,-1.816889,-1.203552,-2.86229,-1.006766,P
-0.111739,0.253711,0.09205,0.203971,0.350102,0.20953,-0.098453,0.117178,-1.177397,0.652803,P
-1.269667,-1.179746,-1.239207,-1.267403,-1.064037,-1.39333,-1.387969,-1.486585,-2.119278,-0.639483,P
-1.263262,-0.898488,-1.241806,-1.33977,-1.132235,-1.269385,-1.413483,-1.310919,-2.144869,-0.629609,P
-0.741385,-0.515065,-0.686783,-0.631559,-1.054633,-0.999281,-1.120372,-0.823236,-1.949037,-0.741861,P
-0.765489,-0.521302,-0.671681,-0.849457,-1.067181,-1.010685,-1.384453,-1.102848,-1.939747,-1.097314,P
-0.772807,-0.478124,-0.689389,-0.724085,-1.035958,-0.921498,-1.363496,-1.078619,-1.836004,-1.006766,P
0.019239,-0.02291,0.213819,-0.034434,-0.401332,-0.525164,-0.742998,-0.602623,-2.300373,-0.232518,P
0.010631,0.062817,0.180118,0.067081,-0.417113,-0.329377,-0.80773,-0.772661,-2.079023,-0.255526,P
-0.03411,0.140146,0.111577,-0.105566,0.078034,-0.019547,-0.175132,-0.084852,-0.123222,-0.209848,P
-0.323672,-0.193424,-0.150703,-0.257215,-0.315649,-0.31402,-0.501064,-0.532414,-0.462202,-0.659423,P
-0.251916,-0.142895,-0.128003,-0.250625,-0.241801,-0.119052,-0.480677,-0.285862,-0.406886,-0.534187,P
-0.120356,0.106221,-0.038079,0.234085,0.401082,0.62858,-0.166737,0.518093,0.055979,0.275436,P
-0.207224,-0.055642,-0.075898,-0.129939,-0.082717,-0.167525,-0.423335,-0.124448,-0.251775,-0.217368,P
-0.197705,-0.036859,-0.090424,-0.148446,-0.021893,-0.125894,-0.346325,-0.206659,-0.203347,-0.294651,P
-0.575111,-0.418323,-0.474947,-0.567235,-0.730462,-0.440873,-0.992102,-0.723614,-0.989018,-0.659423,P
-0.462588,-0.183194,-0.318433,-0.263831,-0.56513,-0.28371,-0.790314,-0.338352,-0.626547,-0.165481,P
-0.473456,-0.299337,-0.292481,-0.304062,-0.661803,-0.35267,-0.874272,-0.384736,-0.839105,-0.435611,P
-0.459499,-0.332473,-0.340835,-0.38033,-0.527271,-0.542526,-0.740018,-0.498416,-0.722896,-0.534187,P
-0.358212,-0.224495,-0.163676,-0.167152,-0.421646,-0.368376,-0.639112,-0.416412,-0.556554,-0.271058,P
-0.695383,-0.527563,-0.596946,-0.430668,-0.989022,-0.542526,-1.195595,-0.762733,-1.158743,-0.669491,P
-0.607937,-0.50266,-0.533814,-0.497609,-0.76616,-0.490952,-1.011533,-0.752864,-0.804447,-0.773945,P
-0.638506,-0.565632,-0.544722,-0.505209,-0.804351,-0.432666,-1.032911,-0.575937,-0.878851,-0.679624,P
-0.734239,-0.515065,-0.669537,-0.55936,-0.697138,-0.416368,-0.997796,-0.648097,-1.068078,-0.5622,P
-0.668444,-0.46599,-0.631094,-0.5991,-0.658389,-0.432666,-0.920181,-0.611616,-0.952521,-0.506673,P
-0.728077,-0.527563,-0.643228,-0.689866,-0.683273,-0.408276,-0.935005,-0.515326,-0.956232,-0.418344,P
-1.160195,-1.236419,-1.113385,-1.243936,-1.309073,-0.943367,-1.505654,-1.152419,-1.565921,-0.994253,P
-0.199603,0.045133,0.10988,-0.017098,0.268142,0.169551,0.225935,0.117178,0.21795,0.095475,P
-0.647371,-0.685367,-0.589247,-0.715467,-0.094213,-0.368376,-0.139623,-0.432485,0.172893,-0.435611,SO
-0.617903,-0.383449,-0.532262,-0.607158,-0.075089,-0.132763,-0.078901,-0.206659,0.283139,-0.51579,SO
-0.716307,-0.664803,-0.648281,-0.575147,-0.166626,-0.261322,-0.182096,-0.278499,0.206275,-0.426953,SO
-0.690319,-0.637774,-0.617415,-0.715467,-0.190022,-0.31402,-0.175864,-0.400497,0.102199,-0.376003,SO
-0.376914,-0.157893,-0.346239,-0.304062,0.295667,0.086705,-0.058178,0.003946,0.433254,0.032648,SO
-0.352155,-0.074639,-0.316113,-0.08153,0.287766,0.254116,0.188735,0.156981,0.522186,-0.080395,SO
-0.212648,0.062817,-0.256827,-0.08153,0.402577,0.259609,0.277653,0.212202,0.607621,0.113835,SO
-0.328901,-0.041535,-0.281461,-0.093506,0.326956,0.248605,0.212629,0.249768,0.593919,0.039046,SO
-0.296133,0.08466,-0.242005,-0.017098,0.424364,0.446559,0.285943,0.190339,0.646532,0.131981,SO
-1.0955,-0.995347,-0.98838,-1.014968,-1.190554,-0.785726,-1.391492,-1.078619,-1.089851,-0.851505,SO
-1.071346,-1.02047,-0.984062,-0.98459,-1.178307,-0.795799,-1.340714,-0.843916,-1.127032,-0.969527,SO
-1.030856,-0.914245,-0.926544,-0.935113,-1.171659,-0.878574,-1.402809,-0.886083,-1.159774,-1.044925,SO
-1.049435,-0.995347,-0.916247,-0.944896,-1.205126,-0.921498,-1.424218,-1.031219,-1.154622,-0.840184,SO
-1.417496,-1.518482,-1.352845,-1.327497,-1.437703,-1.39333,-1.396435,-1.310919,-1.189934,-1.12419,SO
-1.460494,-1.507135,-1.320093,-1.454309,-1.498115,-1.35102,-1.412056,-1.353085,-1.19939,-0.80671,SO
-1.368146,-1.484672,-1.288105,-1.441203,-1.481219,-1.466236,-1.27665,-1.26982,-1.024292,-0.994253,SO
-1.503239,-1.518482,-1.375601,-1.402468,-1.545673,-1.436703,-1.393609,-1.242987,-1.248458,-1.151542,SO
-1.057913,-1.054569,-1.016784,-0.858769,-0.863061,-0.726488,-0.848841,-0.833543,-0.672517,-0.689824,SO
-1.030261,-1.071885,-0.969588,-0.974582,-0.886852,-0.836691,-0.8373,-0.996556,-0.692673,-0.31861,SO
-1.023142,-1.198423,-1.03121,-1.045887,-0.8228,-0.826377,-0.805159,-0.985164,-0.670112,-0.795711,SO
-0.849352,-1.13395,-1.053704,-0.98459,-0.583925,-0.577785,-0.66133,-0.864862,-0.435056,-0.720836,SO
-0.900633,-0.930152,-0.955265,-0.877542,-0.604559,-0.726488,-0.653263,-0.523847,-0.388793,-0.720836,SO
-1.140645,-1.071885,-1.188235,-1.186619,-0.797019,-0.697613,-0.767008,-0.843916,-0.503651,-0.957311,SO
-1.080583,-0.806964,-0.919842,-0.849457,-1.047349,-0.868008,-1.107017,-0.985164,-0.961813,-1.070897,SO
-1.101766,-0.867417,-0.940046,-0.86813,-1.057762,-1.191435,-1.084771,-1.229735,-1.007051,-1.165402,SO
-1.097377,-0.898488,-0.940046,-0.906089,-1.094647,-1.15374,-1.177286,-1.031219,-1.04363,-1.165402,SO
-0.851428,-0.720217,-0.850651,-1.035519,-0.690193,-0.736221,-0.829994,-0.996556,-0.632823,-0.571652,SO
-0.930622,-0.692279,-0.796955,-0.974582,-0.683273,-0.507973,-0.745484,-0.864862,-0.515447,-0.897638,SO
-0.893643,-0.79956,-0.8269,-0.78564,-0.658389,-0.650537,-0.694922,-0.782651,-0.476645,-0.294651,SO
-0.922375,-0.713188,-0.792261,-0.78564,-0.705853,-0.63206,-0.750967,-0.676006,-0.572483,-0.773945,SO
-1.29415,-1.355916,-1.163442,-1.377116,-1.334137,-1.511503,-1.366277,-1.411068,-1.265822,-1.357893,SO
-1.253359,-1.217313,-1.136678,-1.153115,-1.294893,-1.269385,-1.369061,-1.486585,-1.237685,-1.455526,SO
-1.235859,-1.143009,-1.125281,-1.025213,-1.236882,-1.337143,-1.235355,-1.324853,-1.147431,-1.373743,SO
-0.725714,-0.617786,-0.688519,-0.673006,-0.579004,-0.298799,-0.357998,-0.369127,0.047154,-0.600359,SO
-0.794014,-0.706189,-0.740763,-0.698358,-0.670363,-0.408276,-0.514196,-0.549683,-0.024362,-0.741861,SO
-0.78115,-0.69922,-0.736257,-0.758992,-0.660095,-0.457406,-0.427941,-0.62066,0.018752,-0.619797,SO
-0.765976,-0.624422,-0.745283,-0.64802,-0.588857,-0.329377,-0.353159,-0.648097,-0.012923,-0.453072,SO
-1.231694,-1.28517,-1.063948,-1.291192,-1.531019,-1.365008,-1.328404,-1.549635,-1.029108,-1.559745,SO
-1.208335,-1.275305,-1.014027,-1.220782,-1.474759,-1.29617,-1.232764,-1.242987,-0.854024,-1.422291,SO
-1.151688,-1.12494,-0.932759,-1.197932,-1.421315,-1.282726,-1.167261,-1.338908,-0.858434,-1.251276,SO
-1.047626,-0.946212,-0.959493,-0.96463,-0.862115,-0.785726,-0.900057,-0.985164,-0.742756,-1.070897,SO
-1.112486,-1.037432,-1.096317,-1.120246,-0.880161,-1.080732,-0.833121,-0.962617,-0.57096,-0.851505,SO
-1.123933,-1.107066,-1.095732,-0.96463,-0.852683,-0.826377,-0.879614,-0.648097,-0.61795,-0.741861,SO
-1.017828,-0.987056,-1.000871,-0.86813,-0.758968,-0.816124,-0.782682,-0.694882,-0.495583,-0.679624,SO
-0.807004,-0.763025,-0.73401,-0.607158,-0.516926,-0.560066,-0.552363,-0.694882,-0.314733,-0.444317,SO
-0.802493,-0.734364,-0.750272,-0.583094,-0.525676,-0.604709,-0.540296,-0.6389,-0.316734,-0.351145,SO
-0.840567,-0.852096,-0.802137,-0.607158,-0.486214,-0.604709,-0.571746,-0.584784,-0.37981,-0.255526,SO
-0.887758,-1.080611,-0.899425,-0.64802,-0.528867,-0.650537,-0.626001,-0.448718,-0.437895,-0.506673,SO
-0.618773,-0.598036,-0.554536,-0.656309,-0.167956,-0.360505,-0.2494,-0.315648,0.035509,-0.255526,SO
-0.657641,-0.664803,-0.765351,-0.387432,-0.215741,-0.416368,-0.307023,-0.293257,-0.157946,-0.351145,SO
-0.625755,-0.631084,-0.558877,-0.520509,-0.2301,-0.457406,-0.233853,-0.361379,0.107565,-0.351145,SO
-0.581019,-0.394993,-0.457953,-0.142255,-0.250795,-0.276215,-0.250162,-0.213702,-0.008935,-0.278882,SO
-0.541852,-0.496492,-0.42315,-0.257215,-0.228728,-0.35267,-0.205003,-0.448718,0.064216,-0.47964,SO
-0.532443,-0.321354,-0.397265,-0.192411,-0.177955,-0.217398,-0.161282,-0.144613,0.108637,-0.232518,SO
-0.924569,-0.844489,-0.810183,-0.767829,-0.655833,-0.755853,-0.660854,-0.584784,-0.438606,-0.773945,SO
-1.023734,-1.063204,-0.957906,-1.109426,-0.743773,-0.847067,-0.68478,-0.95146,-0.472301,-1.006766,SO
-1.045819,-0.978807,-0.983523,-1.035519,-0.789714,-0.77571,-0.744489,-1.04294,-0.526572,-0.994253,SO
-0.783121,-0.748633,-0.682019,-0.821819,-0.496398,-0.337106,-0.278568,-0.376913,0.673112,-0.294651,SO
-0.666637,-0.69922,-0.573578,-0.698358,-0.305642,-0.44912,-0.212081,-0.473377,0.116653,-0.506673,SO
-0.829795,-0.829377,-0.844796,-0.877542,-0.644793,-0.755853,-0.507618,-0.823236,-0.224863,-0.8744,SO
-0.814052,-0.859739,-0.804971,-0.944896,-0.299946,-0.400222,-0.328358,-0.408435,-0.074338,-0.409783,SO
-0.714434,-0.727276,-0.729527,-0.858769,-0.247331,-0.376283,-0.234231,-0.384736,0.028266,-0.435611,SO
-1.254064,-1.345623,-1.020099,-1.35213,-1.365616,-1.52686,-1.166637,-1.471198,-0.841729,-1.71063,SO
-1.281132,-1.275305,-1.124086,-1.25563,-1.135491,-1.022164,-0.788276,-1.216591,-0.42092,-1.357893,SO
-1.122656,-1.02047,-0.948947,-1.109426,-0.885894,-0.954406,-0.6042,-0.94038,-0.209651,-1.019381,SO
-1.204255,-1.098201,-1.003601,-1.153115,-1.057762,-0.999281,-0.762985,-1.127444,-0.258886,-1.266064,SO
-1.353619,-1.143009,-1.044662,-1.402468,-1.113889,-1.407667,-0.744489,-1.139884,-0.600098,-1.251276,SO
-1.076264,-1.107066,-0.881306,-1.014968,-0.880161,-0.976698,-0.713905,-1.102848,-0.345643,-1.207742,SO
-1.158883,-0.938163,-0.96586,-0.906089,-0.903195,-0.889206,-0.69347,-1.078619,-0.233792,-1.193499,SO
-1.157571,-1.089382,-0.977074,-0.91571,-0.90416,-0.857506,-0.754964,-0.996556,-0.340907,-1.389757,SO
-1.166777,-1.098201,-0.997601,-1.056317,-0.992049,-1.045354,-0.775081,-1.019582,-0.407585,-1.165402,SO
-0.620951,-0.33806,-0.459055,-0.290548,-0.30208,-0.525164,-0.275862,-0.456896,-0.019779,-0.59073,SO
-0.651381,-0.366283,-0.453188,-0.43798,-0.266111,-0.321681,-0.294886,-0.456896,0.026031,-0.571652,SO
-1.383614,-1.451536,-1.349324,-1.739629,-1.4088,-1.422124,-1.21601,-1.440854,-0.902194,-1.455526,SO
-1.700449,-1.886563,-1.580146,-1.835243,-1.900713,-1.84802,-1.681765,-1.649053,-1.469086,-1.771239,SO
-1.522115,-1.588238,-1.430463,-1.724193,-1.684132,-1.638357,-1.44225,-1.718885,-1.122977,-1.559745,SO
-1.683734,-1.750235,-1.619839,-1.93643,-1.845464,-1.557988,-1.628916,-1.773303,-1.424793,-1.506757,SO
-1.693541,-1.929742,-1.57682,-1.57694,-1.875264,-1.52686,-1.490714,-1.701143,-1.286645,-1.524219,SO
-1.665301,-1.750235,-1.495415,-1.802783,-1.829959,-1.466236,-1.449512,-1.598583,-1.221637,-0.945191,SO
-1.586761,-1.484672,-1.39947,-1.739629,-1.638759,-1.705456,-1.422066,-1.565787,-1.197285,-1.671505,SO
-1.576815,-1.600154,-1.367736,-1.739629,-1.630366,-1.775268,-1.403519,-1.517804,-1.213132,-1.813007,SO
-1.553599,-1.484672,-1.34511,-1.693727,-1.692757,-1.757549,-1.444426,-1.718885,-1.221637,-1.900092,SO
-1.577716,-1.624245,-1.293498,-1.57694,-1.60954,-1.654889,-1.477371,-1.773303,-1.304356,-1.690944,SO
-1.679832,-1.737198,-1.467529,-1.818937,-1.49942,-1.638357,-1.473681,-1.229735,-1.258206,-1.900092,SO
-1.763272,-1.275305,-1.501689,-1.678691,-1.980756,-1.671581,-1.575194,-1.791856,-1.351635,-1.968785,SO
-1.023142,-1.045979,-0.867872,-1.004783,-1.234596,-1.29617,-1.321601,-1.190617,-1.293268,-1.296071,SO
-0.878713,-0.748633,-0.810183,-0.724085,-0.454434,-0.516547,-0.603739,-0.584784,-0.478095,-0.552806,SO
-0.950628,-0.867417,-0.788985,-0.994657,-0.887809,-1.03372,-1.00065,-1.367388,-1.09983,-1.326673,SO
-1.006095,-0.784849,-0.837997,-0.954735,-0.956026,-0.999281,-1.08836,-1.031219,-1.165976,-1.236628,SO
-0.927317,-0.658004,-0.85948,-0.776712,-0.583925,-0.641274,-0.827911,-0.558387,-0.764503,-0.773945,SO
-0.005662,0.189769,0.235909,0.358863,0.427316,0.231967,0.201915,0.327454,0.169263,0.06438,SO
-0.908744,-0.867417,-0.74483,-0.812704,-0.913843,-0.889206,-1.190526,-0.94038,-0.643065,-0.817787,SO
-0.857675,-0.678484,-0.663979,-0.64802,-0.835818,-0.816124,-1.172267,-0.833543,-0.564881,-0.78479,SO
-0.92952,-0.748633,-0.812559,-1.045887,-0.83209,-0.65985,-0.963334,-0.792703,-0.761982,-0.885975,SO
-0.933935,-0.844489,-0.776422,-0.840196,-0.910933,-0.954406,-1.238599,-0.864862,-0.731973,-0.969527,SO
-1.188733,-1.207841,-1.088153,-1.441203,-1.061943,-0.976698,-0.963894,-1.090688,-0.674121,-1.12419,SO
-1.136124,-1.376694,-1.141506,-1.364578,-0.945149,-0.976698,-0.827391,-1.102848,-0.558821,-0.629609,SO
-1.02729,-1.115979,-1.011825,-1.209319,-0.574096,-0.726488,-0.605123,-0.676006,-0.275145,-0.773945,SO
-0.964702,-0.995347,-1.018993,-0.887006,-0.424673,-0.716809,-0.526536,-0.733306,-0.265373,-0.817787,SO
-1.233775,-1.387182,-1.230149,-1.35213,-0.802515,-0.965516,-0.781667,-0.886083,-0.599326,-0.731312,SO
-1.458846,-1.648691,-1.4342,-1.724193,-1.405062,-1.422124,-1.143051,-1.229735,-0.768714,-1.207742,SO
-1.489679,-1.737198,-1.419313,-1.835243,-1.416299,-1.451406,-1.232764,-1.517804,-0.904001,-1.524219,SO
-1.393765,-1.387182,-1.329768,-1.364578,-1.281983,-1.282726,-1.161646,-1.297103,-0.869948,-1.266064,SO
-1.495594,-1.495866,-1.389293,-1.480822,-1.199508,-1.365008,-1.046912,-1.353085,-0.671715,-1.357893,SO
-0.961875,-0.946212,-0.857513,-0.877542,-0.713729,-0.847067,-0.872672,-0.996556,-0.759463,-1.070897,SO
-1.137414,-1.152117,-1.142715,-1.004783,-1.137664,-0.999281,-1.189893,-1.256348,-1.006098,-1.110694,SO
-1.067057,-1.071885,-0.991627,-1.045887,-0.867796,-0.857506,-0.90982,-1.102848,-0.692673,-0.957311,SO
-0.989266,-0.829377,-0.867377,-0.681416,-0.745555,-0.785726,-0.881756,-0.71398,-0.596239,-0.817787,SO
-1.103022,-1.089382,-1.05711,-1.056317,-0.826511,-0.669214,-0.77205,-0.875438,-0.527315,-1.006766,SO
-1.355141,-1.28517,-1.284746,-1.441203,-1.446584,-1.481193,-1.414197,-1.773303,-1.302133,-1.652308,SO
-1.38907,-1.387182,-1.265422,-1.402468,-1.523072,-1.511503,-1.516939,-1.598583,-1.375715,-1.652308,SO
-1.482951,-1.564659,-1.414879,-1.61982,-1.483809,-1.589689,-1.455342,-1.701143,-1.361918,-1.791982,SO
-1.194785,-1.115979,-1.101591,-1.267403,-1.116038,-1.068859,-1.205774,-1.078619,-1.065128,-1.207742,SO
-0.964702,-0.875131,-0.871342,-0.5991,-0.769765,-0.868008,-0.831557,-0.896798,-0.74442,-0.897638,SO
-0.977784,-0.875131,-0.838482,-0.78564,-0.806188,-0.836691,-0.946618,-0.996556,-0.807885,-0.957311,SO
-1.086778,-1.098201,-1.101591,-1.098673,-0.759866,-0.965516,-0.859395,-1.019582,-0.819101,-0.994253,SO
-1.043413,-1.170485,-0.968522,-1.243936,-0.947122,-1.204185,-1.117328,-1.066639,-1.02333,-0.981841,SO
-1.736561,-1.900832,-1.794124,-1.8851,-1.790207,-1.671581,-1.710022,-1.632055,-1.565921,-1.296071,SO
-1.66916,-1.900832,-1.688359,-1.835243,-1.684132,-1.74001,-1.628114,-1.632055,-1.511939,-1.311296,SO
-1.305831,-1.335393,-1.366311,-1.441203,-1.113889,-0.976698,-1.070483,-1.102848,-0.850503,-1.110694,SO
-1.217217,-1.325227,-1.262778,-1.243936,-1.021555,-1.080732,-0.957745,-1.165052,-0.713862,-1.110694,SO
-1.246331,-1.335393,-1.325613,-1.197932,-0.852683,-1.104727,-0.889808,-1.008028,-0.775469,-1.0321,SO
-1.139352,-1.189058,-1.150603,-1.23232,-0.816323,-1.045354,-0.803617,-0.875438,-0.52806,-0.994253,SO
-1.310974,-1.54141,-1.365599,-1.770919,-1.195026,-1.21703,-1.157912,-1.216591,-0.877067,-1.251276,SO
